<?xml version="1.0" encoding="UTF-8"?>
<!-- Created with Inkscape (http://www.inkscape.org/) -->
<svg width="259.08mm" height="22.39mm" preserveAspectRatio="none" version="1.1" viewBox="0 0 259.08 22.39" xmlns="http://www.w3.org/2000/svg" xmlns:cc="http://creativecommons.org/ns#" xmlns:dc="http://purl.org/dc/elements/1.1/" xmlns:rdf="http://www.w3.org/1999/02/22-rdf-syntax-ns#">
 <metadata>
  <rdf:RDF>
   <cc:Work rdf:about="">
    <dc:format>image/svg+xml</dc:format>
    <dc:type rdf:resource="http://purl.org/dc/dcmitype/StillImage"/>
    <dc:title/>
   </cc:Work>
  </rdf:RDF>
 </metadata>
 <path d="m0.002605 4.0675e-4v22.39h259.08v-22.388c-21.614 10.114-63.859 16.952-113.31 18.307-7.3635 0.20164-25.646 0.1952-33.231-0.011882-22.073-0.60263-44.076-2.4719-62.856-5.3399-13.479-2.0587-25.429-4.6135-34.737-7.4263-6.6296-2.0034-10.205-3.3265-14.946-5.5302z" fill="#f2f2f2" stroke-width=".18911"/>
</svg>
